{
	"info": {
		"_postman_id": "82cf121f-8a0d-4b80-b107-2f8935c9e186",
		"name": "ServiceRequest",
		"schema": "https://schema.getpostman.com/json/collection/v2.1.0/collection.json"
	},
	"item": [
		{
			"name": "ListServiceRequests",
			"request": {
				"method": "GET",
				"header": [],
				"url": {
					"raw": "http://localhost:3000/api/v1/institute/5caeb47e24e5d3214b1d5e49/serviceRequest/",
					"protocol": "http",
					"host": [
						"localhost"
					],
					"port": "3000",
					"path": [
						"api",
						"v1",
						"institute",
						"5caeb47e24e5d3214b1d5e49",
						"serviceRequest",
						""
					]
				},
				"description": "List all the service request forms for an institute"
			},
			"response": []
		},
		{
			"name": "AddServiceRequest",
			"request": {
				"method": "POST",
				"header": [
					{
						"key": "Content-Type",
						"value": "application/json",
						"type": "text"
					}
				],
				"body": {
					"mode": "raw",
					"raw": "{\n\t\"instituteId\":\"5caeb47e24e5d3214b1d5e49\",\n\t\"name\":\"TestName3\",\n\t\"mandatoryFields\":[{\"name\":\"Name\",\"shortDescription\":\"Name\",\"required\":true,\"type\":\"text\"},{\"name\":\"Email\",\"shortDescription\":\"Email\",\"required\":true,\"type\":\"text\"}],\n\t\"dynamicFields\":[{\"name\":\"New Field\",\"shortDescription\":\"New\",\"required\":false,\"type\":\"text\"}]\n}"
				},
				"url": {
					"raw": "http://localhost:3000/api/v1/institute/5caeb47e24e5d3214b1d5e49/serviceRequest",
					"protocol": "http",
					"host": [
						"localhost"
					],
					"port": "3000",
					"path": [
						"api",
						"v1",
						"institute",
						"5caeb47e24e5d3214b1d5e49",
						"serviceRequest"
					]
				},
				"description": "Add a service request form for an institute"
			},
			"response": []
		},
		{
			"name": "GetServiceRequest",
			"request": {
				"method": "GET",
				"header": [],
				"url": {
					"raw": "http://localhost:3000/api/v1/institute/5caeb47e24e5d3214b1d5e49/serviceRequest/5d1467a6624db43243fb216e",
					"protocol": "http",
					"host": [
						"localhost"
					],
					"port": "3000",
					"path": [
						"api",
						"v1",
						"institute",
						"5caeb47e24e5d3214b1d5e49",
						"serviceRequest",
						"5d1467a6624db43243fb216e"
					]
				},
				"description": "Get a single service request"
			},
			"response": []
		},
		{
			"name": "UpdateServiceRequest",
			"request": {
				"method": "PUT",
				"header": [
					{
						"key": "Content-Type",
						"value": "application/json",
						"type": "text"
					}
				],
				"body": {
					"mode": "raw",
					"raw": "{\n\t\"name\": \"Another Another Test Name\"\n}"
				},
				"url": {
					"raw": "http://localhost:3000/api/v1/institute/5caeb47e24e5d3214b1d5e49/serviceRequest/5d1467a6624db43243fb216e",
					"protocol": "http",
					"host": [
						"localhost"
					],
					"port": "3000",
					"path": [
						"api",
						"v1",
						"institute",
						"5caeb47e24e5d3214b1d5e49",
						"serviceRequest",
						"5d1467a6624db43243fb216e"
					]
				},
				"description": "Update a service request"
			},
			"response": []
		}
	]
}